<svg width="1000" height="222" viewBox="0 0 1000 222" fill="none" xmlns="http://www.w3.org/2000/svg">
<g clip-path="url(#clip0)">
<path d="M363.583 28.2152C352.311 26.9785 340.882 26.7511 329.581 27.6608C318.352 28.5848 306.611 30.2052 296.177 34.4269C291.074 36.488 285.63 38.9756 282.133 43.2257C278.693 47.4048 276.604 54.1852 280.84 58.6912C288.416 66.7366 301.337 68.5135 312.055 69.9207C335.679 73.0195 359.731 71.8254 383.44 74.4267C394.912 75.6918 406.454 77.8098 417.271 81.6761C427.918 85.4714 439.389 91.7827 445.174 101.449C457.1 121.406 452.367 147.447 433.632 162.202C415.295 176.658 390.548 181.676 367.222 182.955C343.796 184.248 319.503 183.467 296.362 179.572C274.798 175.919 254.827 168.286 236.874 156.416C242.858 147.632 248.857 138.833 254.827 130.048C272.51 143.964 296.859 150.432 319.091 153.943C330.719 155.777 342.531 156.416 354.301 156.416C365.715 156.416 377.627 155.521 388.6 152.379C399.02 149.409 411.486 144.533 415.793 134.156C417.726 129.437 418.494 123.595 415.779 118.989C412.822 114 407.79 110.887 402.275 108.826C391.187 104.69 379.275 103.638 367.52 102.685C355.836 101.747 344.009 101.633 332.296 101.164C309.724 100.255 284.479 98.7621 264.422 87.9164C254.443 82.529 245.545 73.4601 243.981 62.2733C242.432 51.2143 243.896 39.2883 251.131 30.0915C265.246 12.1385 290.264 4.53367 312.95 2.06034C336.632 -0.498284 360.441 0.112952 383.952 3.72345C405.928 7.12074 428.117 14.9814 446.382 27.1206C440.498 34.8818 434.599 42.6572 428.728 50.4183C410.235 37.0993 386.354 30.7311 363.583 28.2152" fill="black"/>
<path d="M531.514 182.543C530.135 182.671 521.45 182.77 521.308 183.41C509.808 183.126 498.095 181.775 488.643 175.066C479.616 168.684 476.603 157.255 476.006 147.134C475.38 136.473 475.864 125.699 475.864 115.024V72.6073C475.864 71.5554 476.262 71.0436 475.082 71.0436H464.123H452.836C451.031 71.0436 451.827 69.21 451.827 67.7032V45.628C451.827 43.6522 453.092 44.3913 455.082 44.3913H467.932H473.362H475.864V38.9471V14.9956C475.864 14.2565 476.006 9.53721 475.864 9.55142C475.722 9.57982 481.208 9.55142 482.147 9.55142C490.334 9.55142 507.875 9.52301 509.183 9.52301V19.3737V42.2734V44.3914H518.053H544.193H553.319C555.053 44.3914 554.925 44.1923 554.925 45.8697V68.0728C554.925 69.1247 555.607 71.0437 554.243 71.0437H546.496H520.384H509.183C509.282 94.4551 509.382 117.881 509.481 141.306C509.51 145.301 510.107 149.494 513.547 152.195C516.958 154.853 522.033 155.08 526.269 155.208C536.375 155.492 546.098 152.991 555.622 150.077C558.28 159.06 560.952 168.044 563.61 177.028C556.659 178.89 549.339 180.098 542.203 181.15C538.664 181.676 535.096 182.173 531.514 182.543" fill="black"/>
<path d="M675.209 181.249L656.844 212.436C655.351 214.966 653.859 217.496 652.366 220.027C651.215 222.002 649.623 221.235 647.192 221.235H614.2C621.194 210.062 628.187 198.904 635.166 187.731C636.858 185.03 638.564 182.33 640.255 179.629C640.426 179.344 642.217 177.013 642.061 176.715C641.037 174.952 640.014 173.175 638.99 171.413C624.051 145.585 609.111 119.757 594.172 93.9149C584.619 77.3976 575.067 60.9087 565.529 44.3913H604.889C606.382 44.3913 607.476 47.9308 608.073 49.0253C610.845 54.0572 613.617 59.0892 616.389 64.1212C630.746 90.148 645.088 116.161 659.431 142.188C659.942 143.097 660.454 144.036 660.952 144.931C673.787 122.671 686.637 100.383 699.473 78.1083C705.585 67.5185 711.683 56.9428 717.796 46.3387C718.165 45.6991 718.535 45.0594 718.905 44.4056C719.118 44.036 723.411 44.3913 723.865 44.3913H749.153H755.763C746.168 60.6811 736.587 76.9853 726.993 93.2468C709.722 122.6 692.465 151.91 675.209 181.249" fill="black"/>
<path d="M798.947 178.534H775.322H766.779C766.168 178.534 766.353 178.349 766.353 177.809V153.374V55.4076V4.39145C769.693 4.39145 800.297 4.26352 800.297 4.5336V25.5001V122.159V163.794V175.492C800.297 177.34 801.05 178.534 798.947 178.534Z" fill="black"/>
<path d="M904.469 40.625C892.491 40.7636 880.524 42.4737 869.188 45.5938C847.084 51.6776 826.597 66.7012 818.594 87.625C810.776 108.08 812.826 132.965 826.188 151.031C839.89 169.553 862.989 179.174 886.188 181.875C909.443 184.576 934.209 183.161 956.781 177.063C968.011 174.021 978.823 169.243 988.375 162.875C989.043 162.434 994.25 159.103 993.938 158.719C992.189 156.53 990.436 154.379 988.688 152.219C984.622 147.144 980.534 142.075 976.469 137C975.033 138.123 973.6 139.195 972.094 140.219C953.288 152.841 928.374 154.875 906 154.875H904.656C883.633 154.875 855.5 146.871 851.25 124.313H851.281H925.656H999.5C999.145 111.477 997.379 98.8635 992.063 86.9375C982.567 65.6299 962.957 51.4164 939.844 45.0625C928.444 41.9282 916.446 40.4864 904.469 40.625ZM903.375 68.5938C904.77 68.5703 906.163 68.5859 907.531 68.625C929.223 69.2504 955.198 76.1319 961.125 98.5625H934.031H851.563C851.705 97.9371 851.801 97.2845 852 96.6875C859.13 76.5117 882.449 68.9459 903.375 68.5938Z" fill="black"/>
<path d="M0.5 178.207V158.264V62.1879V4.39145H37.0457V23.0125V118.463C37.0457 122.159 37.2305 178.264 36.8751 178.264C33.421 178.264 0.5 178.307 0.5 178.207" fill="black"/>
<path d="M187.208 178.065V139.956V109.508C187.208 99.4727 187.208 86.5374 179.732 78.5062C171.999 70.2191 159.007 68.9256 147.962 68.9256C136.619 68.9256 124.721 69.9632 114.074 74.057C108.73 76.1181 103.485 78.2077 98.5237 81.0648C95.9366 82.5573 93.4633 84.1778 91.0468 85.912C89.7817 86.8075 88.9431 87.2197 88.9431 88.6554V171.597C88.9431 172.607 89.6112 178.264 88.3745 178.264H65.9439H56.0505C55.0982 178.264 54.9276 178.491 54.9276 177.653V167.944V74.3698V45.173C54.9276 44.3912 54.7855 44.3912 55.6526 44.3912H64.9204H88.0191C89.7533 44.3912 88.9431 46.367 88.9431 47.7601V56.1609C108.488 43.8226 131.743 39.5583 154.956 40.667C176.945 41.7047 204.024 47.5895 214.614 68.2433C219.532 77.8097 221.48 87.9305 221.522 98.5488C221.565 110.645 221.622 122.756 221.665 134.853C221.707 149.323 221.764 163.794 221.821 178.264C218.367 178.264 187.208 178.449 187.208 178.065" fill="black"/>
</g>
<defs>
<clipPath id="clip0">
<rect width="1000" height="221.882" fill="white"/>
</clipPath>
</defs>
</svg>
