<?xml version="1.0" encoding="utf-8"?>
<!-- Generator: Adobe Illustrator 25.0.0, SVG Export Plug-In . SVG Version: 6.00 Build 0)  -->
<svg version="1.1" id="Layer_1" xmlns="http://www.w3.org/2000/svg" xmlns:xlink="http://www.w3.org/1999/xlink" x="0px" y="0px"
	 viewBox="0 0 2994 765" style="enable-background:new 0 0 2994 765;" xml:space="preserve">
<g transform="translate(0.000000,765.000000) scale(0.100000,-0.100000)">
	<path d="M17375,7636c-44-19-103-89-111-131c-18-99,15-179,98-231l40-26l-4-77c-8-131-65-229-163-277c-47-23-64-26-127-22
		c-91,4-155,34-223,103c-28,27-66,80-85,116l-34,67l31,35c105,120,41,310-112,333c-85,12-176-33-212-106c-57-111,1-249,117-280
		c22-6,44-20,50-31s11-59,11-107c0-175-66-295-179-328c-116-34-253,8-349,107c-93,95-93,95-58,189c27,73-3,164-71,217
		c-30,22-49,28-104,31c-68,4-110-9-154-47c-71-63-75-207-7-285c24-27,86-56,120-56c17,0,42-11,59-25c58-48,192-276,364-615
		c72-143,74-145,108-148c32-3,45,5,110,63c94,83,188,146,284,190c162,75,429,116,635,96c162-15,178-2,161,137c-17,134-29,491-20,613
		s14,141,50,174c36,32,53,76,54,136c2,111-87,199-198,199C17428,7649,17392,7643,17375,7636z"/>
	<path d="M1348,6096c-29-32-62-57-78-61c-19-4-61,4-123,24c-147,47-305,66-428,52c-194-22-353-95-467-216c-117-123-172-264-172-439
		c0-162,54-297,164-410c99-101,174-145,596-350c129-63,238-123,272-150c104-83,158-190,158-311c0-113-46-199-143-272
		c-77-56-167-84-277-85c-108-1-222,36-347,113c-107,67-267,221-312,302c-18,32-44,65-57,74c-22,14-26,14-49-1c-55-36-75-118-76-301
		c0-222,30-333,101-370c48-25,79-19,126,25c24,22,51,40,60,40c8,0,68-13,132-30c195-49,294-63,452-63c170,0,257,19,385,82
		c290,144,433,435,369,749c-28,140-114,281-224,368c-80,64-227,144-457,249c-291,134-361,175-434,253c-45,48-62,75-75,119
		c-32,109,1,236,82,317c111,111,327,144,505,76c78-29,182-112,258-204c36-44,88-102,114-129c40-40,53-48,80-45c25,2,36,10,49,38
		c48,99,49,365,2,512c-18,57-63,98-106,98C1404,6150,1387,6139,1348,6096z"/>
	<path d="M17793,6093c-44-51-53-57-89-57c-21,0-79,12-129,28c-49,15-137,34-195,43c-337,51-667-103-793-370c-42-87-59-172-59-287
		c1-126,22-207,81-297c103-160,203-230,581-408c118-55,248-120,287-143c97-57,168-130,207-211c28-59,31-76,31-156c0-78-4-97-27-141
		c-95-182-340-265-557-190c-189,65-378,213-485,378c-30,47-62,88-72,92c-24,9-65-22-87-67c-48-96-44-422,7-534c27-57,72-93,118-93
		c17,0,44,15,73,40c25,22,53,40,62,40s66-13,127-30c175-47,295-63,456-63c172,1,259,20,390,85c67,34,104,62,177,133
		c77,76,98,104,133,176c120,251,77,544-108,741c-96,102-214,174-477,293c-364,163-479,238-536,345c-33,63-34,202-2,272
		c69,151,260,231,464,195c48-8,111-27,140-41c74-38,167-116,230-194c30-37,77-91,105-119c114-118,169-41,168,232
		c-2,249-46,365-140,365C17849,6150,17834,6140,17793,6093z"/>
	<path d="M22498,6135c-454-74-801-436-914-955c-27-121-27-478-1-598c110-497,428-833,870-917c106-20,340-20,447,1
		c430,81,771,427,878,889c65,280,51,597-39,852c-128,363-403,620-762,714C22871,6149,22626,6156,22498,6135z M22821,5920
		c165-52,296-172,389-358c225-450,192-1119-73-1479c-121-164-316-250-510-224c-284,37-509,309-598,721c-20,91-23,135-23,330
		c-1,196,2,240,22,338c73,359,236,585,481,669C22597,5947,22731,5948,22821,5920z"/>
	<path d="M25544,6136c-221-36-389-123-561-289c-187-181-303-402-360-683c-25-124-25-443,0-566c54-267,161-473,341-654
		c205-205,430-294,751-294c322,0,557,93,771,305c182,181,288,380,345,647c26,123,36,382,20,511c-64,510-372,885-826,1007
		C25923,6148,25667,6156,25544,6136z M25932,5892c203-98,341-296,418-597c66-259,68-572,5-820c-52-207-122-342-235-455
		c-150-150-338-201-534-143c-248,74-436,333-518,716c-18,86-22,135-22,317c0,184,3,231,22,327c74,372,231,593,482,681
		c56,20,81,22,180,19C25842,5934,25848,5933,25932,5892z"/>
	<path d="M2545,6093c-55-14-73-73-32-110c12-11,50-39,84-62c115-77,139-134,153-371c12-203,12-1045,0-1274c-14-270-39-329-180-429
		c-74-54-80-61-80-93c0-62,13-64,473-64c429,0,462,3,473,45c9,38-3,58-63,100c-169,120-177,142-194,505c-13,282-6,1152,11,1300
		c14,123,49,201,115,256c107,87,137,121,133,151c-5,49-32,52-473,51C2745,6098,2556,6095,2545,6093z"/>
	<path d="M4375,6096c-5-3-27-7-47-11c-82-13-66-88,30-151c94-61,141-112,160-174c15-50,17-124,16-800c-1-776-5-870-44-956
		c-11-25-48-75-83-112c-36-37-70-77-76-90c-29-56,25-90,166-106c112-12,1380,8,1463,23c30,6,66,19,80,29c47,35,98,231,107,418
		c7,126,1,160-27,169c-32,10-59-11-205-160c-127-129-148-146-225-183c-125-59-215-77-395-77c-133,0-155,2-197,22
		c-57,26-101,89-118,165c-19,89-30,371-30,758c1,592,19,818,75,930c13,26,59,79,104,121c60,56,81,82,81,101c0,29-26,55-67,67
		C5113,6088,4394,6103,4375,6096z"/>
	<path d="M12499,6089c-150-9-212-24-217-52c-3-13,21-42,72-91c82-78,119-143,137-238c28-140,18-1573-11-1671c-15-51-61-100-142-154
		c-75-50-91-79-67-122c31-54,44-56,429-56c195,0,367,3,382,8c31,8,58,33,58,52c0,8-27,47-59,87c-98,121-121,183-142,376
		c-13,121-6,405,11,464c13,46,50,68,113,68c105,0,201-54,272-155c26-35,110-190,189-343c78-154,164-311,190-350
		c103-156,200-206,396-206c201,0,350,66,350,154c0,37-13,45-98,59c-82,13-155,46-220,99c-46,38-86,101-296,474
		c-64,115-136,237-160,272l-44,65l72,53c215,160,311,302,335,495c19,151-16,312-91,420c-57,83-85,110-158,158
		c-111,72-254,114-469,135C13212,6102,12700,6101,12499,6089z M13323,5885c132-34,227-110,280-222c27-60,31-80,35-178
		c7-179-27-281-125-381c-98-99-205-137-393-138c-69-1-137,2-152,7c-52,14-53,24-52,392c2,453,11,499,103,523
		C13077,5904,13259,5902,13323,5885z"/>
	<path d="M19485,6090c-394-9-515-26-515-71c0-11,34-56,76-101c101-108,113-137,126-306c13-181,5-1391-11-1487
		c-16-101-60-186-120-229c-64-47-121-111-121-136c0-55,143-71,550-59c334,10,390,20,390,74c0,22-26,49-138,143
		c-101,84-122,154-122,401c0,162,14,260,43,304c18,28,30,31,322,72c269,38,381,74,512,163c129,88,240,245,278,397
		c20,78,20,262,0,340c-42,165-166,323-313,399c-127,65-360,109-562,104C19839,6097,19661,6093,19485,6090z M20005,5875
		c165-43,283-169,315-334c13-71,13-227-1-293c-37-174-173-310-349-348c-33-7-107-11-184-9c-125,4-128,5-151,31c-13,15-27,48-30,72
		c-12,74,0,798,13,828c14,34,53,60,106,69C19782,5902,19936,5893,20005,5875z"/>
	<path d="M6665,6079c-167-25-186-79-63-181c124-104,159-142,193-213c35-74,171-435,455-1210c211-575,228-619,275-690
		c48-72,96-105,153-105c96,0,151,63,237,270c55,135,183,471,355,935c231,623,284,759,323,824c18,29,70,88,118,131
		c198,182,159,232-189,246c-150,6-293-6-319-27c-21-18-15-42,29-120c59-101,63-167,18-346c-77-309-422-1285-469-1327
		c-17-16-19-14-45,43c-78,174-382,1066-437,1284c-39,155-37,234,9,349c18,43,29,84,26,92s-22,23-42,33c-33,16-68,18-302,20
		C6844,6088,6698,6084,6665,6079z"/>
	<path d="M10030,6080c-353-8-398-15-433-62c-27-36-18-53,67-125c98-83,123-132,137-269c14-140,15-1269,0-1420
		c-17-182-38-221-190-342c-40-32-51-62-33-88c13-20,66-42,127-53c169-32,1209-40,1394-11c182,28,252,89,296,259c20,79,25,225,8,242
		c-18,18-59-4-168-91c-98-78-216-140-310-164c-143-36-330-42-471-15c-151,29-226,211-228,554c-1,201,6,223,89,265
		c44,22,63,25,155,25c133,0,175-18,314-135c96-82,99-84,125-69c37,21,51,58,62,162c19,196,6,426-28,495c-21,44-60,67-94,59
		c-13-3-59-40-102-82s-97-85-120-95c-59-25-142-33-221-20c-84,13-121,32-147,73c-19,29-20,44-16,182c6,177,26,286,70,374
		c27,55,40,69,87,95c55,31,56,31,200,30c148,0,216-10,330-46c92-29,142-57,245-132c49-36,95-66,102-66c27,0,35,42,31,159
		c-8,189-51,266-165,300C11084,6086,10526,6091,10030,6080z"/>
	<path d="M27691,6069c-30-5-63-17-73-26c-35-32-23-61,66-152c101-103,133-162,147-268c6-43,13-323,16-623c5-537-4-884-27-960
		c-20-71-65-126-139-170c-107-64-126-111-58-147c26-14,66-18,214-21c200-4,334,9,401,38c59,27,57,55-12,154c-63,91-86,161-113,356
		c-15,108-18,200-17,675c0,338,4,561,10,580l10,29l75-94c105-132,233-306,544-740c420-586,541-745,636-835c183-172,315-193,334-52
		c3,23,10,418,15,877c6,459,15,864,20,900c13,80,52,166,115,250c26,36,56,84,67,107c17,39,17,45,3,66c-19,29-68,45-178,57
		c-111,13-397,13-435-1c-59-20-50-58,32-148c58-63,70-92,100-236c28-136,38-360,34-810c-2-270-8-449-14-464c-10-22-13-20-81,65
		c-98,124-168,220-503,689c-367,514-515,710-583,772c-65,59-154,107-226,122C27996,6075,27757,6081,27691,6069z"/>
	<path d="M17580,2340c-384-37-687-206-811-452c-67-133-77-307-24-426c57-127,198-226,390-274c50-12,91-23,93-24s-39-64-91-141
		c-100-148-161-263-199-378c-19-59-23-91-23-200c0-112,3-138,23-186c65-162,221-241,477-242c304-2,601,125,825,352
		c123,124,162,197,168,318c4,74,2,88-22,137c-63,128-226,182-426,142c-265-54-502-261-661-579c-54-109-59-122-42-128
		c39-16,53-9,77,39c49,96,148,235,228,319c190,198,377,292,555,281c185-12,262-154,178-324c-46-92-205-247-326-317
		c-267-157-580-213-757-137c-63,27-136,103-151,156c-50,179,84,461,374,792l69,79l100,7c538,35,1123,264,1437,564
		c177,168,246,307,204,407c-35,85-91,116-220,123c-377,19-934-277-1503-801c-80-72-159-149-176-170l-32-39l-91,16
		c-199,34-332,116-398,246c-42,81-27,236,33,340c65,114,240,256,400,325c246,107,526,129,865,68c48-9,89-14,92-12c2,2,6,16,10,31
		c6,25,5,26-62,42C17969,2338,17741,2356,17580,2340z M19097,2161c23-11,46-28,52-39c17-31,13-112-8-157c-40-88-203-248-349-343
		c-290-189-785-358-1112-379l-95-6l112,119c273,292,598,552,863,692C18774,2161,18994,2207,19097,2161z"/>
	<path d="M5715,2280c-341-39-615-164-805-367c-119-128-176-272-168-428c9-171,106-287,278-331c81-20,293-14,385,11
		c204,56,436,221,580,413c61,81,134,208,150,260c6,20,3,22-30,22c-30,0-39-5-53-31c-84-152-222-312-357-412
		c-290-216-632-266-786-115c-53,52-73,101-77,189c-11,213,132,415,388,548c174,90,323,124,540,124c139-1,231-10,675-67
		c411-54,586-57,755-15c129,32,280,109,280,143c0,7-6,20-12,29c-12,16-17,15-73-7c-92-37-202-56-327-56c-103,0-224,12-713,70
		C6158,2283,5830,2293,5715,2280z"/>
	<path d="M13635,2236c-253-80-626-419-1141-1036c-104-124-326-412-351-454c-11-18-697-532-767-575c-116-70-186-75-186-13
		c0,40,36,93,353,518c152,205,277,374,277,378c0,3-43,6-95,6h-95l-37-51l-37-51l-13,44c-7,24-24,55-39,68c-24,23-32,25-132,24
		c-91,0-118-5-182-28c-183-68-369-191-560-372c-255-240-507-426-712-524c-121-58-176-70-201-45c-9,9-17,22-17,30
		c0,20,76,118,261,336c180,212,237,290,276,376c67,147,4,244-149,229c-117-12-251-78-435-217c-58-44-102-71-98-62
		c81,193,66,263-58,278c-135,17-318-69-560-262l-68-55l94,129c51,70,97,134,101,140c5,10-14,13-86,13h-94l-49-66
		c-67-92-88-109-190-159c-147-72-232-84-249-38c-11,28,28,88,117,179c97,101,97,104-1,104c-92,0-153-39-220-139
		c-22-32-121-114-354-292c-177-136-325-245-327-244c-1,2,107,145,241,317s247,319,252,326c5,9-14,12-86,12h-93l-75-98
		c-205-268-419-422-584-422c-58,0-146,19-146,31c0,5,11,26,24,47c112,178,158,354,110,419c-42,55-67,66-149,65c-87-2-166-27-355-110
		c-182-81-467-155-532-139c-38,10-41,30-12,115c41,126,71,171,134,205c141,75,230,159,230,216c0,77-120,29-257-102
		c-82-79-87-82-151-93c-37-6-68-10-70-8c-5,3,94,159,161,254c102,143,176,229,311,363c125,123,129,128,116,152c-7,14-17,25-21,25
		c-13,0-183-136-289-232c-160-145-338-347-495-561c-41-56-56-69-90-77c-287-72-486-154-681-281l-75-49l16-30c9-16,18-30,22-30
		c3,0,42,23,87,52c44,28,128,75,186,104c137,68,400,153,400,129c0-9-67-104-169-240c-336-449-606-648-926-684
		c-205-24-377,45-392,155c-4,31-1,43,16,58c21,19,23,19,77,2c96-30,154,3,154,90c0,130-172,155-278,40c-51-55-68-125-51-206
		c9-44,21-63,63-105c93-92,235-126,448-105c337,32,598,161,863,425c155,154,300,345,420,552c44,76,51,84,89,94c22,5,56,14,74,19
		c17,5,32,7,32,6c0-2-21-47-46-101c-25-53-48-113-51-134c-14-104,115-124,376-58l87,22l-90-85c-159-151-261-312-292-462
		c-25-120,2-205,80-249c51-29,160-31,251-5c170,49,378,212,565,441l25,31l45-18c103-39,264-15,384,57c33,20,53,28,45,18
		c-17-19-316-403-363-466l-28-37h98h99l45,61c38,50,107,105,420,336c206,153,390,288,408,301l32,24l21-26c12-15,39-36,62-48
		c34-17,53-20,112-15c38,3,101,16,138,30s64,20,59,13c-35-45-490-654-496-663c-5-10,16-13,97-13h105l51,69c294,396,632,724,870,842
		c69,35,94,42,145,43c54,1,61-1,64-20c4-27-17-57-369-514c-168-217-308-401-312-408c-6-9,15-12,96-12h104l34,47
		c96,136,289,363,409,484c264,266,507,429,640,429c97,0,75-40-191-350c-169-197-218-261-252-329c-39-79-42-90-42-168
		c0-77,2-84,28-110s33-28,105-27c92,1,196,36,337,114c82,46,239,157,337,240l37,31l-21-58c-11-32-22-94-25-138c-5-94,12-138,66-169
		c75-43,248-14,390,65c65,37,178,118,206,149c11,12,27,26,36,31c15,7,15,3,3-49c-22-94-19-139,14-172c56-56,156-50,292,17
		c45,22,182,118,339,236c146,109,258,188,249,175c-117-182-169-376-118-440c29-38,71-51,144-46c52,3,83,13,158,51
		c51,25,125,70,163,99c83,63,315,286,315,303c0,6-9,20-21,31c-24,22-16,27-155-100c-164-149-269-231-357-275c-134-70-175-48-123,65
		c39,84,89,162,269,412l160,223l146,102c483,336,927,714,1118,952c164,205,180,366,36,364C13697,2249,13657,2243,13635,2236z
		 M13720,2155c20-24,3-79-52-162c-67-102-371-405-583-582c-171-143-503-396-510-389c-6,6,321,439,441,583c131,158,373,402,469,473
		C13591,2157,13691,2190,13720,2155z M11441,991c35-35,35-49,5-123c-37-91-130-211-291-376c-183-189-282-269-402-329
		c-158-79-241-71-230,23c16,148,442,617,693,765C11349,1029,11394,1037,11441,991z M7164,989c19-15,26-30,26-54c0-29-4-35-33-44
		c-41-14-88-61-119-121c-18-35-23-62-24-123c-1-89,0-88-160-256c-178-188-356-301-472-301c-81,0-135,67-113,139
		c28,95,193,305,379,481C6911,960,7083,1053,7164,989z"/>
	<path d="M25585,2236c-133-42-354-201-579-416c-242-231-666-732-901-1064c-36-51-83-97-178-172c-324-258-689-487-747-469
		c-11,3-25,15-31,26c-18,35,27,106,313,489c150,201,284,380,296,398l23,32h-99h-100l-38-56l-39-57l-6,39c-12,90-51,119-155,117
		c-214-4-479-145-738-393c-121-115-261-220-645-483c-102-71-198-129-216-133c-68-12-92,28-57,97c10,19,160,220,335,447
		c174,226,317,414,317,417s-47,5-103,5h-104l-69-97c-168-238-443-534-632-683c-225-177-402-239-402-141c0,57,71,163,351,526
		c157,204,288,376,293,383c5,9-18,12-98,12h-105l-208-272c-294-387-345-477-347-614c-1-84,13-117,62-140c72-34,236,6,367,89
		c41,27,169,126,236,184c16,13,16,9,2-54c-8-37-12-90-10-117c4-41,10-55,41-83c32-30,42-33,96-33c41,0,74,7,101,20
		c85,44,418,264,557,368l32,25l-20-47c-27-63-44-167-36-221c14-92,83-132,214-122c131,9,271,77,427,206c47,39,76,58,71,46
		c-4-11-12-45-18-75c-13-73,4-125,52-158c31-21,43-23,103-19c64,4,75,9,215,93c130,79,378,246,485,328l37,28l-44-83
		c-49-93-86-203-86-256c0-91,59-138,164-131c139,11,290,104,503,311l144,141l-25,24l-25,25l-53-46c-223-197-293-255-363-302
		c-93-62-152-88-192-83c-25,3-28,6-27,40c2,54,72,170,274,453l175,244l100,67c129,86,376,270,535,398c444,358,708,638,756,804
		c28,94-11,152-101,151C25643,2249,25607,2243,25585,2236z M25665,2153c88-87-337-537-921-974c-160-119-228-164-208-138
		c6,8,73,97,149,199c382,511,668,810,860,901C25614,2174,25642,2177,25665,2153z M23385,989c15-15,20-33,20-72c0-43-7-63-38-114
		c-59-97-160-217-302-358c-214-214-368-315-490-323c-54-4-66-1-84,17c-27,27-26,44,3,106c73,156,430,545,611,666
		C23263,1017,23336,1037,23385,989z"/>
	<path d="M15320,1639c-189-38-372-249-475-550l-36-106l-57-13c-86-19-268-83-352-123c-287-137-431-315-432-537
		c-1-175,77-256,256-267c144-9,280,26,429,109c65,37,87,41,87,14c0-30,69-93,120-109c135-44,271,0,430,136c72,61,190,194,190,214
		c0,5-11,16-25,23c-24,13-29,9-132-91c-169-163-272-223-350-203c-48,12-75,51-81,116l-4,53l194,185c310,296,448,412,543,456
		c59,28,88,30,106,8c21-25-1-46-61-60c-63-14-90-41-90-91c0-44,37-83,80-83c107,0,196,121,170,233c-11,49-23,63-76,83
		c-37,14-51,15-91,5c-123-31-346-200-643-488c-90-87-130-120-130-106c0,80,61,458,79,492c5,7,59,34,122,60c146,61,186,82,285,147
		c134,88,200,176,211,279C15603,1576,15483,1672,15320,1639z M15437,1536c24-21,28-32,27-73c-2-129-160-283-393-382
		c-48-20-71-26-71-18c0,23,66,211,93,262c35,71,110,166,150,193C15315,1566,15394,1573,15437,1536z M14766,803
		c-24-117-46-316-46-420v-91l-62-40c-144-91-260-132-369-132c-323,0-227,326,176,595c82,55,306,177,313,170
		C14780,883,14774,846,14766,803z"/>
	<path d="M20807,1326c-23-24-55-70-72-102c-24-47-66-94-205-226c-96-91-209-195-251-230c-529-440-652-536-761-601
		c-69-41-126-54-158-37c-50,27-26,66,344,560c146,195,266,358,266,363c0,4-43,7-94,7h-95l-40-57c-28-38-41-50-41-37
		c-1,39-38,103-71,120c-49,25-190,15-289-21c-257-93-558-329-689-539c-73-117-102-200-108-306c-4-73-2-89,16-117c34-54,66-68,151-67
		c135,0,321,83,457,201c96,84,94,83,77,21c-7-29-14-75-14-101c0-41,5-53,30-79c30-29,32-30,119-26c79,3,95,7,172,45
		c98,49,241,154,424,312c72,62,212,182,313,268c101,85,235,204,299,264s117,108,119,107c7-7-19-171-41-264c-70-294-241-566-410-652
		c-59-29-124-44-162-37c-43,8-42,19,6,51c68,44,77,109,25,161c-22,22-32,25-70,20c-73-8-124-69-124-147c0-52,21-92,62-122
		c30-21,43-23,148-22c98,0,127,4,193,27c99,35,169,79,243,156c168,172,227,385,206,741l-7,135l67,72c75,80,99,135,80,178
		C20903,1386,20858,1379,20807,1326z M19580,990c79-79-8-230-308-533c-160-162-265-245-381-300c-90-44-179-60-206-37
		c-58,48,41,220,269,472c172,190,386,366,492,403C19503,1016,19556,1014,19580,990z"/>
</g>
</svg>
