<?xml version="1.0" encoding="utf-8"?>
<!-- Generator: Adobe Illustrator 25.0.0, SVG Export Plug-In . SVG Version: 6.00 Build 0)  -->
<svg version="1.1" id="Layer_1" xmlns="http://www.w3.org/2000/svg" xmlns:xlink="http://www.w3.org/1999/xlink" x="0px" y="0px"
	 viewBox="0 0 1704 206" enable-background="new 0 0 1704 206" xml:space="preserve">
<defs>
	<filter id="Adobe_OpacityMaskFilter" filterUnits="userSpaceOnUse" x="-142.9" y="-203.5" width="2499.6" height="788.9">
		<feColorMatrix  type="matrix" values="1 0 0 0 0  0 1 0 0 0  0 0 1 0 0  0 0 0 1 0"/>
	</filter>
</defs>
<mask maskUnits="userSpaceOnUse" x="-142.9" y="-203.5" width="2499.6" height="788.9" id="mask0_1_">
	<path fill="#FFFFFF" filter="url(#Adobe_OpacityMaskFilter)" d="M52,202L0,3.6h34.1l40,152.4L116.9,3.5l31.8,0l43,153.2L231.8,3.6
		l34.1-0.1l-52,198.4l-39.5,0L132.8,53.7L91.2,202L52,202z"/>
	<path fill="#FFFFFF" d="M289.5,3.7H322v198.2h-32.5V3.7z"/>
	<path fill="#FFFFFF" d="M391.4,170.8h79.1v31.1H359.6V3.7h31.8V170.8z"/>
	<path fill="#FFFFFF" d="M570.3,3.9c26.7,0,48.8,9.6,66.3,28.6c17.7,19,26.7,42.5,26.7,70.4c0,27.7-9,51.2-26.7,70.4
		c-17.5,19-39.6,28.6-66.3,28.6H494V3.7h76.4V3.9z M570.3,171c18.4,0,33.4-6.4,44.6-19.2c11.6-12.8,17.5-29.3,17.5-48.7
		c0-19.9-5.8-35.9-17.5-48.7c-11.4-12.8-26.4-19.2-44.6-19.2H526V171H570.3z"/>
	<path fill="#FFFFFF" d="M834.6,145.3c0,16.2-5.6,29.7-17,40.5c-11.4,10.8-24.9,16.2-41.4,16.2h-83.1V3.7h77
		c15.9,0,29.3,5.5,40.3,15.8C821.6,30,827,43,827,58.6c0,17.4-6.7,30.7-19.7,40.5C824.3,108.2,834.6,124.7,834.6,145.3z M725.1,34.3
		v52.2h45.2c14.1,0,24.9-11.4,24.9-26.1c0-14.6-10.7-26.1-24.9-26.1H725.1z M776.4,171.3c14.8,0,26.4-12.1,26.4-27.7
		S791.2,116,776.4,116h-51.3v55.6h51.3V171.3z"/>
	<path fill="#FFFFFF" d="M896.7,170.9h86V202H864.9V3.7h116.5v31.1h-84.7v51.5h77.7v30.9h-77.7V170.9z"/>
	<path fill="#FFFFFF" d="M1122,202l-41.2-72.3h-37.6V202h-31.8V3.7h77.7c17.5,0,32.3,6.2,44.1,18.8c12.1,12.1,18.4,27.2,18.4,45.1
		c0,25.2-15.5,48.3-38.5,57.4l44.1,77.1H1122z M1043.2,34.3v66.3h45.7c17,0,30.5-14.6,30.5-33.2c0-18.3-13.7-33.2-30.5-33.2H1043.2z
		"/>
	<path fill="#FFFFFF" d="M1292,202l-41-72.3h-37.6V202h-31.8V3.6h77.7c17.5,0,32.3,6.2,44.1,18.8c12.1,12.1,18.4,27.2,18.4,45.1
		c0,25.2-15.5,48.3-38.5,57.4l44.1,77.1H1292z M1213.4,34.2v66.4h45.7c17,0,30.5-14.6,30.5-33.2c0-18.3-13.7-33.2-30.5-33.2H1213.4z
		"/>
	<path fill="#FFFFFF" d="M1350.7,3.6h31.8V202h-31.8V3.6z"/>
	<path fill="#FFFFFF" d="M1451.9,170.9h86V202h-117.8V3.7h116.5v31.1h-84.7v51.5h77.7v30.9h-77.7V170.9z"/>
	<path fill="#FFFFFF" d="M1560.1,156.8l27.6-16.5c7.8,22.4,23.7,33.4,48.2,33.4c24.2,0,36.1-10.5,36.1-26.1c0-8.2-3.4-14.2-9.6-18.3
		c-6.3-4.3-17.9-9.1-34.5-14.2c-18.6-5.7-27.8-9.4-40.8-18.1c-12.5-9.1-18.8-22.2-18.8-40c0-17.6,6-31.3,18.4-41.6
		C1598.6,5,1613.4,0,1630.7,0c31.1,0,55.1,16.5,67.6,43.7l-26.9,15.8c-8.1-18.3-21.7-27.7-40.8-27.7c-18.6,0-30.5,9.6-30.5,24.7
		c0,14.6,9.4,21.5,39.2,30.9c7.4,2.5,12.8,4.3,16.1,5.7c3.6,1.1,8.3,3.2,14.3,5.7c6.3,2.5,11.2,5.5,14.1,8
		c10.3,8.2,21.3,21.7,19.9,40.7c0,17.8-6.3,32.2-19,42.8c-12.5,10.5-29.1,15.5-49.7,15.5C1597.5,205.5,1570.2,187.3,1560.1,156.8z"
		/>
</mask>
<g mask="url(#mask0_1_)">
	<rect x="-142.9" y="-203.5" width="2499.6" height="788.9"/>
</g>
</svg>
